<svg width="72" height="70" viewBox="0 0 72 70" fill="none" xmlns="http://www.w3.org/2000/svg">
<rect width="71.3839" height="70" rx="16" fill="#D2F1E1"/>
<path opacity="0.8" d="M49.7188 20.0901C48.6224 19.9049 47.5121 19.8095 46.3995 19.8051C42.6034 19.802 38.8866 20.8694 35.6919 22.8801C32.489 20.8958 28.7727 19.8546 24.9843 19.8801C23.8717 19.8845 22.7614 19.9799 21.665 20.1651C21.3058 20.2258 20.9806 20.4102 20.7478 20.6852C20.515 20.9603 20.3901 21.3077 20.3954 21.6651V39.6651C20.3921 39.8855 20.4384 40.1039 20.531 40.3047C20.6235 40.5056 20.7601 40.684 20.931 40.8272C21.1019 40.9704 21.3028 41.0749 21.5196 41.1333C21.7363 41.1917 21.9635 41.2026 22.1851 41.1651C24.3771 40.7929 26.6229 40.8546 28.7902 41.3467C30.9575 41.8387 33.0025 42.7511 34.8047 44.0301L34.9883 44.1351H35.1565C35.3262 44.2044 35.5081 44.2401 35.6919 44.2401C35.8757 44.2401 36.0576 44.2044 36.2273 44.1351H36.3955L36.5791 44.0301C38.3687 42.7225 40.4078 41.7806 42.5756 41.2601C44.7433 40.7396 46.9955 40.6512 49.1987 41.0001C49.4202 41.0376 49.6475 41.0267 49.8642 40.9683C50.081 40.9099 50.2819 40.8054 50.4528 40.6622C50.6237 40.519 50.7603 40.3406 50.8528 40.1397C50.9454 39.9389 50.9917 39.7205 50.9884 39.5001V21.5001C50.9725 21.1583 50.8379 20.8321 50.607 20.5757C50.3761 20.3192 50.0627 20.1479 49.7188 20.0901ZM34.1622 40.0251C31.3322 38.5651 28.1821 37.8031 24.9843 37.8051C24.4795 37.8051 23.9747 37.8051 23.4547 37.8051V22.8051C23.9641 22.7763 24.4749 22.7763 24.9843 22.8051C28.2477 22.8015 31.4398 23.7406 34.1622 25.5051V40.0251ZM47.9291 37.8651C47.409 37.8651 46.9043 37.8651 46.3995 37.8651C43.2017 37.8631 40.0516 38.6251 37.2216 40.0851V25.5051C39.944 23.7406 43.1361 22.8015 46.3995 22.8051C46.9089 22.7763 47.4197 22.7763 47.9291 22.8051V37.8651ZM49.7188 44.0901C48.6224 43.9049 47.5121 43.8095 46.3995 43.8051C42.6034 43.802 38.8866 44.8694 35.6919 46.8801C32.4972 44.8694 28.7804 43.802 24.9843 43.8051C23.8717 43.8095 22.7614 43.9049 21.665 44.0901C21.4659 44.121 21.2749 44.1903 21.1032 44.2939C20.9315 44.3975 20.7824 44.5334 20.6644 44.6937C20.5464 44.854 20.4619 45.0356 20.4157 45.228C20.3695 45.4205 20.3626 45.62 20.3954 45.8151C20.4731 46.2046 20.7051 46.548 21.0406 46.7701C21.376 46.9922 21.7876 47.0749 22.1851 47.0001C24.3771 46.6279 26.6229 46.6896 28.7902 47.1817C30.9575 47.6737 33.0025 48.5861 34.8047 49.8651C35.0638 50.0459 35.3739 50.1431 35.6919 50.1431C36.0099 50.1431 36.32 50.0459 36.5791 49.8651C38.3813 48.5861 40.4263 47.6737 42.5936 47.1817C44.7609 46.6896 47.0067 46.6279 49.1987 47.0001C49.5962 47.0749 50.0078 46.9922 50.3432 46.7701C50.6787 46.548 50.9107 46.2046 50.9884 45.8151C51.0212 45.62 51.0143 45.4205 50.9681 45.228C50.9219 45.0356 50.8374 44.854 50.7194 44.6937C50.6014 44.5334 50.4523 44.3975 50.2806 44.2939C50.1089 44.1903 49.9179 44.121 49.7188 44.0901Z" fill="#101130"/>
</svg>
